
<svg class="rich-terminal" viewBox="0 0 1678 318.4" xmlns="http://www.w3.org/2000/svg">
    <!-- Generated with Rich https://www.textualize.io -->
    <style>

    @font-face {
        font-family: "Fira Code";
        src: local("FiraCode-Regular"),
                url("https://cdnjs.cloudflare.com/ajax/libs/firacode/6.2.0/woff2/FiraCode-Regular.woff2") format("woff2"),
                url("https://cdnjs.cloudflare.com/ajax/libs/firacode/6.2.0/woff/FiraCode-Regular.woff") format("woff");
        font-style: normal;
        font-weight: 400;
    }
    @font-face {
        font-family: "Fira Code";
        src: local("FiraCode-Bold"),
                url("https://cdnjs.cloudflare.com/ajax/libs/firacode/6.2.0/woff2/FiraCode-Bold.woff2") format("woff2"),
                url("https://cdnjs.cloudflare.com/ajax/libs/firacode/6.2.0/woff/FiraCode-Bold.woff") format("woff");
        font-style: bold;
        font-weight: 700;
    }

    .terminal-1757485508-matrix {
        font-family: Fira Code, monospace;
        font-size: 20px;
        line-height: 24.4px;
        font-variant-east-asian: full-width;
    }

    .terminal-1757485508-title {
        font-size: 18px;
        font-weight: bold;
        font-family: arial;
    }

    .terminal-1757485508-r1 { fill: #c5c8c6 }
.terminal-1757485508-r2 { fill: #d0b344 }
.terminal-1757485508-r3 { fill: #c5c8c6;font-weight: bold }
.terminal-1757485508-r4 { fill: #68a0b3;font-weight: bold }
.terminal-1757485508-r5 { fill: #868887 }
.terminal-1757485508-r6 { fill: #98a84b;font-weight: bold }
.terminal-1757485508-r7 { fill: #d0b344;font-weight: bold }
.terminal-1757485508-r8 { fill: #8d7b39;font-weight: bold }
    </style>

    <defs>
    <clipPath id="terminal-1757485508-clip-terminal">
      <rect x="0" y="0" width="1658.1999999999998" height="267.4" />
    </clipPath>
    <clipPath id="terminal-1757485508-line-0">
    <rect x="0" y="1.5" width="1659.2" height="24.65"/>
            </clipPath>
<clipPath id="terminal-1757485508-line-1">
    <rect x="0" y="25.9" width="1659.2" height="24.65"/>
            </clipPath>
<clipPath id="terminal-1757485508-line-2">
    <rect x="0" y="50.3" width="1659.2" height="24.65"/>
            </clipPath>
<clipPath id="terminal-1757485508-line-3">
    <rect x="0" y="74.7" width="1659.2" height="24.65"/>
            </clipPath>
<clipPath id="terminal-1757485508-line-4">
    <rect x="0" y="99.1" width="1659.2" height="24.65"/>
            </clipPath>
<clipPath id="terminal-1757485508-line-5">
    <rect x="0" y="123.5" width="1659.2" height="24.65"/>
            </clipPath>
<clipPath id="terminal-1757485508-line-6">
    <rect x="0" y="147.9" width="1659.2" height="24.65"/>
            </clipPath>
<clipPath id="terminal-1757485508-line-7">
    <rect x="0" y="172.3" width="1659.2" height="24.65"/>
            </clipPath>
<clipPath id="terminal-1757485508-line-8">
    <rect x="0" y="196.7" width="1659.2" height="24.65"/>
            </clipPath>
<clipPath id="terminal-1757485508-line-9">
    <rect x="0" y="221.1" width="1659.2" height="24.65"/>
            </clipPath>
    </defs>

    <rect fill="#292929" stroke="rgba(255,255,255,0.35)" stroke-width="1" x="1" y="1" width="1676" height="316.4" rx="8"/><text class="terminal-1757485508-title" fill="#c5c8c6" text-anchor="middle" x="838" y="27">Rich</text>
            <g transform="translate(26,22)">
            <circle cx="0" cy="0" r="7" fill="#ff5f57"/>
            <circle cx="22" cy="0" r="7" fill="#febc2e"/>
            <circle cx="44" cy="0" r="7" fill="#28c840"/>
            </g>
        
    <g transform="translate(9, 41)" clip-path="url(#terminal-1757485508-clip-terminal)">
    
    <g class="terminal-1757485508-matrix">
    <text class="terminal-1757485508-r1" x="1659.2" y="20" textLength="12.2" clip-path="url(#terminal-1757485508-line-0)">
</text><text class="terminal-1757485508-r2" x="12.2" y="44.4" textLength="73.2" clip-path="url(#terminal-1757485508-line-1)">Usage:</text><text class="terminal-1757485508-r3" x="97.6" y="44.4" textLength="85.4" clip-path="url(#terminal-1757485508-line-1)">todo&#160;ls</text><text class="terminal-1757485508-r1" x="195.2" y="44.4" textLength="12.2" clip-path="url(#terminal-1757485508-line-1)">[</text><text class="terminal-1757485508-r4" x="207.4" y="44.4" textLength="85.4" clip-path="url(#terminal-1757485508-line-1)">OPTIONS</text><text class="terminal-1757485508-r1" x="292.8" y="44.4" textLength="12.2" clip-path="url(#terminal-1757485508-line-1)">]</text><text class="terminal-1757485508-r1" x="1659.2" y="44.4" textLength="12.2" clip-path="url(#terminal-1757485508-line-1)">
</text><text class="terminal-1757485508-r1" x="1659.2" y="68.8" textLength="12.2" clip-path="url(#terminal-1757485508-line-2)">
</text><text class="terminal-1757485508-r1" x="12.2" y="93.2" textLength="1634.8" clip-path="url(#terminal-1757485508-line-3)">List&#160;all&#160;todos.&#160;&#160;&#160;&#160;&#160;&#160;&#160;&#160;&#160;&#160;&#160;&#160;&#160;&#160;&#160;&#160;&#160;&#160;&#160;&#160;&#160;&#160;&#160;&#160;&#160;&#160;&#160;&#160;&#160;&#160;&#160;&#160;&#160;&#160;&#160;&#160;&#160;&#160;&#160;&#160;&#160;&#160;&#160;&#160;&#160;&#160;&#160;&#160;&#160;&#160;&#160;&#160;&#160;&#160;&#160;&#160;&#160;&#160;&#160;&#160;&#160;&#160;&#160;&#160;&#160;&#160;&#160;&#160;&#160;&#160;&#160;&#160;&#160;&#160;&#160;&#160;&#160;&#160;&#160;&#160;&#160;&#160;&#160;&#160;&#160;&#160;&#160;&#160;&#160;&#160;&#160;&#160;&#160;&#160;&#160;&#160;&#160;&#160;&#160;&#160;&#160;&#160;&#160;&#160;&#160;&#160;&#160;&#160;&#160;&#160;&#160;&#160;&#160;&#160;&#160;&#160;&#160;&#160;&#160;</text><text class="terminal-1757485508-r1" x="1659.2" y="93.2" textLength="12.2" clip-path="url(#terminal-1757485508-line-3)">
</text><text class="terminal-1757485508-r1" x="1659.2" y="117.6" textLength="12.2" clip-path="url(#terminal-1757485508-line-4)">
</text><text class="terminal-1757485508-r5" x="0" y="142" textLength="24.4" clip-path="url(#terminal-1757485508-line-5)">╭─</text><text class="terminal-1757485508-r5" x="24.4" y="142" textLength="109.8" clip-path="url(#terminal-1757485508-line-5)">&#160;Options&#160;</text><text class="terminal-1757485508-r5" x="134.2" y="142" textLength="1500.6" clip-path="url(#terminal-1757485508-line-5)">───────────────────────────────────────────────────────────────────────────────────────────────────────────────────────────</text><text class="terminal-1757485508-r5" x="1634.8" y="142" textLength="24.4" clip-path="url(#terminal-1757485508-line-5)">─╮</text><text class="terminal-1757485508-r1" x="1659.2" y="142" textLength="12.2" clip-path="url(#terminal-1757485508-line-5)">
</text><text class="terminal-1757485508-r5" x="0" y="166.4" textLength="12.2" clip-path="url(#terminal-1757485508-line-6)">│</text><text class="terminal-1757485508-r4" x="24.4" y="166.4" textLength="73.2" clip-path="url(#terminal-1757485508-line-6)">--name</text><text class="terminal-1757485508-r6" x="207.4" y="166.4" textLength="24.4" clip-path="url(#terminal-1757485508-line-6)">-n</text><text class="terminal-1757485508-r7" x="256.2" y="166.4" textLength="305" clip-path="url(#terminal-1757485508-line-6)">TEXT&#160;&#160;&#160;&#160;&#160;&#160;&#160;&#160;&#160;&#160;&#160;&#160;&#160;&#160;&#160;&#160;&#160;&#160;&#160;&#160;&#160;</text><text class="terminal-1757485508-r1" x="585.6" y="166.4" textLength="1049.2" clip-path="url(#terminal-1757485508-line-6)">Todo&#160;name&#160;&#160;&#160;&#160;&#160;&#160;&#160;&#160;&#160;&#160;&#160;&#160;&#160;&#160;&#160;&#160;&#160;&#160;&#160;&#160;&#160;&#160;&#160;&#160;&#160;&#160;&#160;&#160;&#160;&#160;&#160;&#160;&#160;&#160;&#160;&#160;&#160;&#160;&#160;&#160;&#160;&#160;&#160;&#160;&#160;&#160;&#160;&#160;&#160;&#160;&#160;&#160;&#160;&#160;&#160;&#160;&#160;&#160;&#160;&#160;&#160;&#160;&#160;&#160;&#160;&#160;&#160;&#160;&#160;&#160;&#160;&#160;&#160;&#160;&#160;&#160;&#160;</text><text class="terminal-1757485508-r5" x="1647" y="166.4" textLength="12.2" clip-path="url(#terminal-1757485508-line-6)">│</text><text class="terminal-1757485508-r1" x="1659.2" y="166.4" textLength="12.2" clip-path="url(#terminal-1757485508-line-6)">
</text><text class="terminal-1757485508-r5" x="0" y="190.8" textLength="12.2" clip-path="url(#terminal-1757485508-line-7)">│</text><text class="terminal-1757485508-r4" x="24.4" y="190.8" textLength="158.6" clip-path="url(#terminal-1757485508-line-7)">--description</text><text class="terminal-1757485508-r6" x="207.4" y="190.8" textLength="24.4" clip-path="url(#terminal-1757485508-line-7)">-d</text><text class="terminal-1757485508-r7" x="256.2" y="190.8" textLength="305" clip-path="url(#terminal-1757485508-line-7)">TEXT&#160;&#160;&#160;&#160;&#160;&#160;&#160;&#160;&#160;&#160;&#160;&#160;&#160;&#160;&#160;&#160;&#160;&#160;&#160;&#160;&#160;</text><text class="terminal-1757485508-r1" x="585.6" y="190.8" textLength="1049.2" clip-path="url(#terminal-1757485508-line-7)">Todo&#160;description&#160;&#160;&#160;&#160;&#160;&#160;&#160;&#160;&#160;&#160;&#160;&#160;&#160;&#160;&#160;&#160;&#160;&#160;&#160;&#160;&#160;&#160;&#160;&#160;&#160;&#160;&#160;&#160;&#160;&#160;&#160;&#160;&#160;&#160;&#160;&#160;&#160;&#160;&#160;&#160;&#160;&#160;&#160;&#160;&#160;&#160;&#160;&#160;&#160;&#160;&#160;&#160;&#160;&#160;&#160;&#160;&#160;&#160;&#160;&#160;&#160;&#160;&#160;&#160;&#160;&#160;&#160;&#160;&#160;&#160;</text><text class="terminal-1757485508-r5" x="1647" y="190.8" textLength="12.2" clip-path="url(#terminal-1757485508-line-7)">│</text><text class="terminal-1757485508-r1" x="1659.2" y="190.8" textLength="12.2" clip-path="url(#terminal-1757485508-line-7)">
</text><text class="terminal-1757485508-r5" x="0" y="215.2" textLength="12.2" clip-path="url(#terminal-1757485508-line-8)">│</text><text class="terminal-1757485508-r4" x="24.4" y="215.2" textLength="97.6" clip-path="url(#terminal-1757485508-line-8)">--status</text><text class="terminal-1757485508-r6" x="207.4" y="215.2" textLength="24.4" clip-path="url(#terminal-1757485508-line-8)">-s</text><text class="terminal-1757485508-r8" x="256.2" y="215.2" textLength="12.2" clip-path="url(#terminal-1757485508-line-8)">[</text><text class="terminal-1757485508-r7" x="268.4" y="215.2" textLength="48.8" clip-path="url(#terminal-1757485508-line-8)">todo</text><text class="terminal-1757485508-r8" x="317.2" y="215.2" textLength="12.2" clip-path="url(#terminal-1757485508-line-8)">|</text><text class="terminal-1757485508-r7" x="329.4" y="215.2" textLength="61" clip-path="url(#terminal-1757485508-line-8)">doing</text><text class="terminal-1757485508-r8" x="390.4" y="215.2" textLength="12.2" clip-path="url(#terminal-1757485508-line-8)">|</text><text class="terminal-1757485508-r7" x="402.6" y="215.2" textLength="85.4" clip-path="url(#terminal-1757485508-line-8)">testing</text><text class="terminal-1757485508-r8" x="488" y="215.2" textLength="12.2" clip-path="url(#terminal-1757485508-line-8)">|</text><text class="terminal-1757485508-r7" x="500.2" y="215.2" textLength="48.8" clip-path="url(#terminal-1757485508-line-8)">done</text><text class="terminal-1757485508-r8" x="549" y="215.2" textLength="12.2" clip-path="url(#terminal-1757485508-line-8)">]</text><text class="terminal-1757485508-r1" x="585.6" y="215.2" textLength="1049.2" clip-path="url(#terminal-1757485508-line-8)">Todo&#160;status&#160;&#160;&#160;&#160;&#160;&#160;&#160;&#160;&#160;&#160;&#160;&#160;&#160;&#160;&#160;&#160;&#160;&#160;&#160;&#160;&#160;&#160;&#160;&#160;&#160;&#160;&#160;&#160;&#160;&#160;&#160;&#160;&#160;&#160;&#160;&#160;&#160;&#160;&#160;&#160;&#160;&#160;&#160;&#160;&#160;&#160;&#160;&#160;&#160;&#160;&#160;&#160;&#160;&#160;&#160;&#160;&#160;&#160;&#160;&#160;&#160;&#160;&#160;&#160;&#160;&#160;&#160;&#160;&#160;&#160;&#160;&#160;&#160;&#160;&#160;</text><text class="terminal-1757485508-r5" x="1647" y="215.2" textLength="12.2" clip-path="url(#terminal-1757485508-line-8)">│</text><text class="terminal-1757485508-r1" x="1659.2" y="215.2" textLength="12.2" clip-path="url(#terminal-1757485508-line-8)">
</text><text class="terminal-1757485508-r5" x="0" y="239.6" textLength="12.2" clip-path="url(#terminal-1757485508-line-9)">│</text><text class="terminal-1757485508-r4" x="24.4" y="239.6" textLength="73.2" clip-path="url(#terminal-1757485508-line-9)">--help</text><text class="terminal-1757485508-r6" x="207.4" y="239.6" textLength="24.4" clip-path="url(#terminal-1757485508-line-9)">-h</text><text class="terminal-1757485508-r1" x="585.6" y="239.6" textLength="1049.2" clip-path="url(#terminal-1757485508-line-9)">Show&#160;this&#160;message&#160;and&#160;exit.&#160;&#160;&#160;&#160;&#160;&#160;&#160;&#160;&#160;&#160;&#160;&#160;&#160;&#160;&#160;&#160;&#160;&#160;&#160;&#160;&#160;&#160;&#160;&#160;&#160;&#160;&#160;&#160;&#160;&#160;&#160;&#160;&#160;&#160;&#160;&#160;&#160;&#160;&#160;&#160;&#160;&#160;&#160;&#160;&#160;&#160;&#160;&#160;&#160;&#160;&#160;&#160;&#160;&#160;&#160;&#160;&#160;&#160;&#160;</text><text class="terminal-1757485508-r5" x="1647" y="239.6" textLength="12.2" clip-path="url(#terminal-1757485508-line-9)">│</text><text class="terminal-1757485508-r1" x="1659.2" y="239.6" textLength="12.2" clip-path="url(#terminal-1757485508-line-9)">
</text><text class="terminal-1757485508-r5" x="0" y="264" textLength="1659.2" clip-path="url(#terminal-1757485508-line-10)">╰──────────────────────────────────────────────────────────────────────────────────────────────────────────────────────────────────────╯</text><text class="terminal-1757485508-r1" x="1659.2" y="264" textLength="12.2" clip-path="url(#terminal-1757485508-line-10)">
</text>
    </g>
    </g>
</svg>

